{
  "files": {
    "main.js": "/static/js/main.7e06fe4c.js",
    "static/js/787.c4e7f8f9.chunk.js": "/static/js/787.c4e7f8f9.chunk.js",
    "static/media/banner.png": "/static/media/banner.3e138f971e1733c4e7f8.png",
    "static/media/Banner-Slider-3.jpg": "/static/media/Banner-Slider-3.cc0a97bf90907b1652c9.jpg",
    "static/media/Banner-Slider-4.jpg": "/static/media/Banner-Slider-4.2c936471a788892589a9.jpg",
    "static/media/Banner-Slider-2.jpg": "/static/media/Banner-Slider-2.b02a40d1294bd5f2700f.jpg",
    "static/media/Banner-Slider-1.jpg": "/static/media/Banner-Slider-1.e8bb8fcd0a023d725b5e.jpg",
    "static/media/BMX.jpeg": "/static/media/BMX.b160ebb391559d75c5b0.jpeg",
    "static/media/logo.png": "/static/media/logo.d3890526e33a0daeb477.png",
    "index.html": "/index.html",
    "main.7e06fe4c.js.map": "/static/js/main.7e06fe4c.js.map",
    "787.c4e7f8f9.chunk.js.map": "/static/js/787.c4e7f8f9.chunk.js.map"
  },
  "entrypoints": [
    "static/js/main.7e06fe4c.js"
  ]
}